Copyright 1986-2019 Xilinx, Inc. All Rights Reserved.
-----------------------------------------------------------------------------------------------
| Tool Version : Vivado v.2019.2 (lin64) Build 2708876 Wed Nov  6 21:39:14 MST 2019
| Date         : Tue Oct  6 23:14:43 2020
| Host         : tyranocif running 64-bit Ubuntu 20.04.1 LTS
| Command      : report_utilization -hierarchical -file salersppnlp/reports/synth_use_hier.txt
| Design       : Salers
| Device       : xczu7evffvc1156-2
| Design State : Synthesized
-----------------------------------------------------------------------------------------------

Utilization Design Information

Table of Contents
-----------------
1. Utilization by Hierarchy

1. Utilization by Hierarchy
---------------------------

+---------------------------+---------------------+------------+------------+---------+------+-------+--------+--------+------+--------------+
|          Instance         |        Module       | Total LUTs | Logic LUTs | LUTRAMs | SRLs |  FFs  | RAMB36 | RAMB18 | URAM | DSP48 Blocks |
+---------------------------+---------------------+------------+------------+---------+------+-------+--------+--------+------+--------------+
| Salers                    |               (top) |      56240 |      46000 |   10240 |    0 | 18188 |      0 |      0 |    0 |            0 |
|   (Salers)                |               (top) |          0 |          0 |       0 |    0 |     0 |      0 |      0 |    0 |            0 |
|   l1dcache                |           Manseng_1 |      23476 |      19380 |    4096 |    0 |  5453 |      0 |      0 |    0 |            0 |
|     (l1dcache)            |           Manseng_1 |          2 |          2 |       0 |    0 |     0 |      0 |      0 |    0 |            0 |
|     cache                 |             Cache_1 |      19666 |      15570 |    4096 |    0 |  3810 |      0 |      0 |    0 |            0 |
|       subcache_0          |          SubCache_1 |      19666 |      15570 |    4096 |    0 |  3810 |      0 |      0 |    0 |            0 |
|         (subcache_0)      |          SubCache_1 |          0 |          0 |       0 |    0 |    10 |      0 |      0 |    0 |            0 |
|         StableSlct_27     |    StableSlct_4_109 |          0 |          0 |       0 |    0 |     1 |      0 |      0 |    0 |            0 |
|         StableSlct_29     |    StableSlct_4_110 |          0 |          0 |       0 |    0 |     1 |      0 |      0 |    0 |            0 |
|         set_0             |              Set_16 |       1212 |        956 |     256 |    0 |   228 |      0 |      0 |    0 |            0 |
|           ctrl            |      CtrlSet_16_170 |        113 |        113 |       0 |    0 |   100 |      0 |      0 |    0 |            0 |
|             (ctrl)        |      CtrlSet_16_170 |         50 |         50 |       0 |    0 |    96 |      0 |      0 |    0 |            0 |
|             BitPlruPolicy | BitPlruPolicy_2_172 |         63 |         63 |       0 |    0 |     4 |      0 |      0 |    0 |            0 |
|           data            |         DataSet_171 |       1099 |        843 |     256 |    0 |   128 |      0 |      0 |    0 |            0 |
|         set_1             |          Set_16_111 |       1212 |        956 |     256 |    0 |   228 |      0 |      0 |    0 |            0 |
|           ctrl            |      CtrlSet_16_167 |        113 |        113 |       0 |    0 |   100 |      0 |      0 |    0 |            0 |
|             (ctrl)        |      CtrlSet_16_167 |         50 |         50 |       0 |    0 |    96 |      0 |      0 |    0 |            0 |
|             BitPlruPolicy | BitPlruPolicy_2_169 |         63 |         63 |       0 |    0 |     4 |      0 |      0 |    0 |            0 |
|           data            |         DataSet_168 |       1099 |        843 |     256 |    0 |   128 |      0 |      0 |    0 |            0 |
|         set_10            |          Set_16_112 |       1212 |        956 |     256 |    0 |   228 |      0 |      0 |    0 |            0 |
|           ctrl            |      CtrlSet_16_164 |        113 |        113 |       0 |    0 |   100 |      0 |      0 |    0 |            0 |
|             (ctrl)        |      CtrlSet_16_164 |         50 |         50 |       0 |    0 |    96 |      0 |      0 |    0 |            0 |
|             BitPlruPolicy | BitPlruPolicy_2_166 |         63 |         63 |       0 |    0 |     4 |      0 |      0 |    0 |            0 |
|           data            |         DataSet_165 |       1099 |        843 |     256 |    0 |   128 |      0 |      0 |    0 |            0 |
|         set_11            |          Set_16_113 |       1248 |        992 |     256 |    0 |   228 |      0 |      0 |    0 |            0 |
|           ctrl            |      CtrlSet_16_161 |        117 |        117 |       0 |    0 |   100 |      0 |      0 |    0 |            0 |
|             (ctrl)        |      CtrlSet_16_161 |         52 |         52 |       0 |    0 |    96 |      0 |      0 |    0 |            0 |
|             BitPlruPolicy | BitPlruPolicy_2_163 |         65 |         65 |       0 |    0 |     4 |      0 |      0 |    0 |            0 |
|           data            |         DataSet_162 |       1131 |        875 |     256 |    0 |   128 |      0 |      0 |    0 |            0 |
|         set_12            |          Set_16_114 |       1213 |        957 |     256 |    0 |   228 |      0 |      0 |    0 |            0 |
|           ctrl            |      CtrlSet_16_158 |        113 |        113 |       0 |    0 |   100 |      0 |      0 |    0 |            0 |
|             (ctrl)        |      CtrlSet_16_158 |         50 |         50 |       0 |    0 |    96 |      0 |      0 |    0 |            0 |
|             BitPlruPolicy | BitPlruPolicy_2_160 |         63 |         63 |       0 |    0 |     4 |      0 |      0 |    0 |            0 |
|           data            |         DataSet_159 |       1100 |        844 |     256 |    0 |   128 |      0 |      0 |    0 |            0 |
|         set_13            |          Set_16_115 |       1212 |        956 |     256 |    0 |   228 |      0 |      0 |    0 |            0 |
|           ctrl            |      CtrlSet_16_155 |        113 |        113 |       0 |    0 |   100 |      0 |      0 |    0 |            0 |
|             (ctrl)        |      CtrlSet_16_155 |         50 |         50 |       0 |    0 |    96 |      0 |      0 |    0 |            0 |
|             BitPlruPolicy | BitPlruPolicy_2_157 |         63 |         63 |       0 |    0 |     4 |      0 |      0 |    0 |            0 |
|           data            |         DataSet_156 |       1099 |        843 |     256 |    0 |   128 |      0 |      0 |    0 |            0 |
|         set_14            |          Set_16_116 |       1212 |        956 |     256 |    0 |   228 |      0 |      0 |    0 |            0 |
|           ctrl            |      CtrlSet_16_152 |        113 |        113 |       0 |    0 |   100 |      0 |      0 |    0 |            0 |
|             (ctrl)        |      CtrlSet_16_152 |         50 |         50 |       0 |    0 |    96 |      0 |      0 |    0 |            0 |
|             BitPlruPolicy | BitPlruPolicy_2_154 |         63 |         63 |       0 |    0 |     4 |      0 |      0 |    0 |            0 |
|           data            |         DataSet_153 |       1099 |        843 |     256 |    0 |   128 |      0 |      0 |    0 |            0 |
|         set_15            |          Set_16_117 |       1249 |        993 |     256 |    0 |   228 |      0 |      0 |    0 |            0 |
|           ctrl            |      CtrlSet_16_149 |        117 |        117 |       0 |    0 |   100 |      0 |      0 |    0 |            0 |
|             (ctrl)        |      CtrlSet_16_149 |         52 |         52 |       0 |    0 |    96 |      0 |      0 |    0 |            0 |
|             BitPlruPolicy | BitPlruPolicy_2_151 |         65 |         65 |       0 |    0 |     4 |      0 |      0 |    0 |            0 |
|           data            |         DataSet_150 |       1132 |        876 |     256 |    0 |   128 |      0 |      0 |    0 |            0 |
|         set_2             |          Set_16_118 |       1212 |        956 |     256 |    0 |   228 |      0 |      0 |    0 |            0 |
|           ctrl            |      CtrlSet_16_146 |        113 |        113 |       0 |    0 |   100 |      0 |      0 |    0 |            0 |
|             (ctrl)        |      CtrlSet_16_146 |         50 |         50 |       0 |    0 |    96 |      0 |      0 |    0 |            0 |
|             BitPlruPolicy | BitPlruPolicy_2_148 |         63 |         63 |       0 |    0 |     4 |      0 |      0 |    0 |            0 |
|           data            |         DataSet_147 |       1099 |        843 |     256 |    0 |   128 |      0 |      0 |    0 |            0 |
|         set_3             |          Set_16_119 |       1376 |       1120 |     256 |    0 |   378 |      0 |      0 |    0 |            0 |
|           ctrl            |      CtrlSet_16_143 |        117 |        117 |       0 |    0 |   100 |      0 |      0 |    0 |            0 |
|             (ctrl)        |      CtrlSet_16_143 |         52 |         52 |       0 |    0 |    96 |      0 |      0 |    0 |            0 |
|             BitPlruPolicy | BitPlruPolicy_2_145 |         65 |         65 |       0 |    0 |     4 |      0 |      0 |    0 |            0 |
|           data            |         DataSet_144 |       1259 |       1003 |     256 |    0 |   278 |      0 |      0 |    0 |            0 |
|         set_4             |          Set_16_120 |       1212 |        956 |     256 |    0 |   228 |      0 |      0 |    0 |            0 |
|           ctrl            |      CtrlSet_16_140 |        113 |        113 |       0 |    0 |   100 |      0 |      0 |    0 |            0 |
|             (ctrl)        |      CtrlSet_16_140 |         50 |         50 |       0 |    0 |    96 |      0 |      0 |    0 |            0 |
|             BitPlruPolicy | BitPlruPolicy_2_142 |         63 |         63 |       0 |    0 |     4 |      0 |      0 |    0 |            0 |
|           data            |         DataSet_141 |       1099 |        843 |     256 |    0 |   128 |      0 |      0 |    0 |            0 |
|         set_5             |          Set_16_121 |       1212 |        956 |     256 |    0 |   228 |      0 |      0 |    0 |            0 |
|           ctrl            |      CtrlSet_16_137 |        113 |        113 |       0 |    0 |   100 |      0 |      0 |    0 |            0 |
|             (ctrl)        |      CtrlSet_16_137 |         50 |         50 |       0 |    0 |    96 |      0 |      0 |    0 |            0 |
|             BitPlruPolicy | BitPlruPolicy_2_139 |         63 |         63 |       0 |    0 |     4 |      0 |      0 |    0 |            0 |
|           data            |         DataSet_138 |       1099 |        843 |     256 |    0 |   128 |      0 |      0 |    0 |            0 |
|         set_6             |          Set_16_122 |       1212 |        956 |     256 |    0 |   228 |      0 |      0 |    0 |            0 |
|           ctrl            |      CtrlSet_16_134 |        113 |        113 |       0 |    0 |   100 |      0 |      0 |    0 |            0 |
|             (ctrl)        |      CtrlSet_16_134 |         50 |         50 |       0 |    0 |    96 |      0 |      0 |    0 |            0 |
|             BitPlruPolicy | BitPlruPolicy_2_136 |         63 |         63 |       0 |    0 |     4 |      0 |      0 |    0 |            0 |
|           data            |         DataSet_135 |       1099 |        843 |     256 |    0 |   128 |      0 |      0 |    0 |            0 |
|         set_7             |          Set_16_123 |       1248 |        992 |     256 |    0 |   228 |      0 |      0 |    0 |            0 |
|           ctrl            |      CtrlSet_16_131 |        117 |        117 |       0 |    0 |   100 |      0 |      0 |    0 |            0 |
|             (ctrl)        |      CtrlSet_16_131 |         52 |         52 |       0 |    0 |    96 |      0 |      0 |    0 |            0 |
|             BitPlruPolicy | BitPlruPolicy_2_133 |         65 |         65 |       0 |    0 |     4 |      0 |      0 |    0 |            0 |
|           data            |         DataSet_132 |       1131 |        875 |     256 |    0 |   128 |      0 |      0 |    0 |            0 |
|         set_8             |          Set_16_124 |       1212 |        956 |     256 |    0 |   228 |      0 |      0 |    0 |            0 |
|           ctrl            |      CtrlSet_16_128 |        113 |        113 |       0 |    0 |   100 |      0 |      0 |    0 |            0 |
|             (ctrl)        |      CtrlSet_16_128 |         50 |         50 |       0 |    0 |    96 |      0 |      0 |    0 |            0 |
|             BitPlruPolicy | BitPlruPolicy_2_130 |         63 |         63 |       0 |    0 |     4 |      0 |      0 |    0 |            0 |
|           data            |         DataSet_129 |       1099 |        843 |     256 |    0 |   128 |      0 |      0 |    0 |            0 |
|         set_9             |          Set_16_125 |       1212 |        956 |     256 |    0 |   228 |      0 |      0 |    0 |            0 |
|           ctrl            |          CtrlSet_16 |        113 |        113 |       0 |    0 |   100 |      0 |      0 |    0 |            0 |
|             (ctrl)        |          CtrlSet_16 |         50 |         50 |       0 |    0 |    96 |      0 |      0 |    0 |            0 |
|             BitPlruPolicy | BitPlruPolicy_2_127 |         63 |         63 |       0 |    0 |     4 |      0 |      0 |    0 |            0 |
|           data            |         DataSet_126 |       1099 |        843 |     256 |    0 |   128 |      0 |      0 |    0 |            0 |
|     next                  |          NextCtrl_1 |       1779 |       1779 |       0 |    0 |  1335 |      0 |      0 |    0 |            0 |
|       init                |         InitStage_5 |         71 |         71 |       0 |    0 |   163 |      0 |      0 |    0 |            0 |
|       mem                 |          MemStage_4 |        194 |        194 |       0 |    0 |    83 |      0 |      0 |    0 |            0 |
|         (mem)             |          MemStage_4 |          0 |          0 |       0 |    0 |     1 |      0 |      0 |    0 |            0 |
|         Fifo              |             Fifo_16 |          2 |          2 |       0 |    0 |     2 |      0 |      0 |    0 |            0 |
|         Fifo_1            |         Fifo_16_103 |          2 |          2 |       0 |    0 |     2 |      0 |      0 |    0 |            0 |
|         Fifo_2            |         Fifo_16_104 |          2 |          2 |       0 |    0 |     2 |      0 |      0 |    0 |            0 |
|         Fifo_3            |         Fifo_16_105 |          1 |          1 |       0 |    0 |     2 |      0 |      0 |    0 |            0 |
|         reg_ack_0         |          Fifo_6_106 |          4 |          4 |       0 |    0 |     2 |      0 |      0 |    0 |            0 |
|         reg_ack_1         |          Fifo_6_107 |          4 |          4 |       0 |    0 |     2 |      0 |      0 |    0 |            0 |
|         reg_bus_0         |             Fifo_27 |         13 |         13 |       0 |    0 |    35 |      0 |      0 |    0 |            0 |
|         reg_bus_1         |         Fifo_27_108 |        166 |        166 |       0 |    0 |    35 |      0 |      0 |    0 |            0 |
|       req                 |          ReqStage_6 |        319 |        319 |       0 |    0 |   281 |      0 |      0 |    0 |            0 |
|         reg_bus_0         |             Fifo_25 |         84 |         84 |       0 |    0 |   140 |      0 |      0 |    0 |            0 |
|         reg_bus_1         |         Fifo_25_101 |        233 |        233 |       0 |    0 |   140 |      0 |      0 |    0 |            0 |
|         slct              |      StableSlct_102 |          2 |          2 |       0 |    0 |     1 |      0 |      0 |    0 |            0 |
|       write               |        WriteStage_5 |       1195 |       1195 |       0 |    0 |   808 |      0 |      0 |    0 |            0 |
|         reg_data_0        |          Fifo_20_98 |        203 |        203 |       0 |    0 |   258 |      0 |      0 |    0 |            0 |
|         reg_data_1        |          Fifo_20_99 |        135 |        135 |       0 |    0 |   258 |      0 |      0 |    0 |            0 |
|         reg_write         |         Fifo_22_100 |        857 |        857 |       0 |    0 |   292 |      0 |      0 |    0 |            0 |
|     prev                  |          PrevCtrl_1 |       2029 |       2029 |       0 |    0 |   308 |      0 |      0 |    0 |            0 |
|       pipe_0              |      PrevPipeline_2 |        648 |        648 |       0 |    0 |   154 |      0 |      0 |    0 |            0 |
|         init              |      InitStage_3_93 |          0 |          0 |       0 |    0 |     1 |      0 |      0 |    0 |            0 |
|         read              |      ReadStage_2_94 |        214 |        214 |       0 |    0 |    49 |      0 |      0 |    0 |            0 |
|         req               |       ReqStage_4_95 |        335 |        335 |       0 |    0 |    70 |      0 |      0 |    0 |            0 |
|           reg_bus_0       |          Fifo_23_97 |        335 |        335 |       0 |    0 |    70 |      0 |      0 |    0 |            0 |
|         write             |     WriteStage_3_96 |         99 |         99 |       0 |    0 |    34 |      0 |      0 |    0 |            0 |
|       pipe_1              |   PrevPipeline_2_92 |       1381 |       1381 |       0 |    0 |   154 |      0 |      0 |    0 |            0 |
|         init              |         InitStage_3 |          0 |          0 |       0 |    0 |     1 |      0 |      0 |    0 |            0 |
|         read              |         ReadStage_2 |        731 |        731 |       0 |    0 |    49 |      0 |      0 |    0 |            0 |
|         req               |          ReqStage_4 |        632 |        632 |       0 |    0 |    70 |      0 |      0 |    0 |            0 |
|           reg_bus_0       |             Fifo_23 |        632 |        632 |       0 |    0 |    70 |      0 |      0 |    0 |            0 |
|         write             |        WriteStage_3 |         18 |         18 |       0 |    0 |    34 |      0 |      0 |    0 |            0 |
|   l1icache                |             Manseng |      13485 |       9389 |    4096 |    0 |  4944 |      0 |      0 |    0 |            0 |
|     cache                 |               Cache |       7842 |       3746 |    4096 |    0 |  3680 |      0 |      0 |    0 |            0 |
|       subcache_0          |            SubCache |       7842 |       3746 |    4096 |    0 |  3680 |      0 |      0 |    0 |            0 |
|         (subcache_0)      |            SubCache |          0 |          0 |       0 |    0 |    14 |      0 |      0 |    0 |            0 |
|         StableSlct        |        StableSlct_4 |          0 |          0 |       0 |    0 |     1 |      0 |      0 |    0 |            0 |
|         StableSlct_29     |     StableSlct_4_31 |          0 |          0 |       0 |    0 |     1 |      0 |      0 |    0 |            0 |
|         set_0             |                 Set |        469 |        213 |     256 |    0 |   228 |      0 |      0 |    0 |            0 |
|           ctrl            |          CtrlSet_89 |        101 |        101 |       0 |    0 |   100 |      0 |      0 |    0 |            0 |
|             (ctrl)        |          CtrlSet_89 |         65 |         65 |       0 |    0 |    96 |      0 |      0 |    0 |            0 |
|             BitPlruPolicy |  BitPlruPolicy_2_91 |         36 |         36 |       0 |    0 |     4 |      0 |      0 |    0 |            0 |
|           data            |          DataSet_90 |        368 |        112 |     256 |    0 |   128 |      0 |      0 |    0 |            0 |
|         set_1             |              Set_32 |        457 |        201 |     256 |    0 |   228 |      0 |      0 |    0 |            0 |
|           ctrl            |          CtrlSet_86 |         89 |         89 |       0 |    0 |   100 |      0 |      0 |    0 |            0 |
|             (ctrl)        |          CtrlSet_86 |         30 |         30 |       0 |    0 |    96 |      0 |      0 |    0 |            0 |
|             BitPlruPolicy |  BitPlruPolicy_2_88 |         59 |         59 |       0 |    0 |     4 |      0 |      0 |    0 |            0 |
|           data            |          DataSet_87 |        368 |        112 |     256 |    0 |   128 |      0 |      0 |    0 |            0 |
|         set_10            |              Set_33 |        457 |        201 |     256 |    0 |   228 |      0 |      0 |    0 |            0 |
|           ctrl            |          CtrlSet_83 |         89 |         89 |       0 |    0 |   100 |      0 |      0 |    0 |            0 |
|             (ctrl)        |          CtrlSet_83 |         30 |         30 |       0 |    0 |    96 |      0 |      0 |    0 |            0 |
|             BitPlruPolicy |  BitPlruPolicy_2_85 |         59 |         59 |       0 |    0 |     4 |      0 |      0 |    0 |            0 |
|           data            |          DataSet_84 |        368 |        112 |     256 |    0 |   128 |      0 |      0 |    0 |            0 |
|         set_11            |              Set_34 |        585 |        329 |     256 |    0 |   228 |      0 |      0 |    0 |            0 |
|           ctrl            |          CtrlSet_80 |         89 |         89 |       0 |    0 |   100 |      0 |      0 |    0 |            0 |
|             (ctrl)        |          CtrlSet_80 |         30 |         30 |       0 |    0 |    96 |      0 |      0 |    0 |            0 |
|             BitPlruPolicy |  BitPlruPolicy_2_82 |         59 |         59 |       0 |    0 |     4 |      0 |      0 |    0 |            0 |
|           data            |          DataSet_81 |        496 |        240 |     256 |    0 |   128 |      0 |      0 |    0 |            0 |
|         set_12            |              Set_35 |        457 |        201 |     256 |    0 |   228 |      0 |      0 |    0 |            0 |
|           ctrl            |          CtrlSet_77 |         89 |         89 |       0 |    0 |   100 |      0 |      0 |    0 |            0 |
|             (ctrl)        |          CtrlSet_77 |         30 |         30 |       0 |    0 |    96 |      0 |      0 |    0 |            0 |
|             BitPlruPolicy |  BitPlruPolicy_2_79 |         59 |         59 |       0 |    0 |     4 |      0 |      0 |    0 |            0 |
|           data            |          DataSet_78 |        368 |        112 |     256 |    0 |   128 |      0 |      0 |    0 |            0 |
|         set_13            |              Set_36 |        457 |        201 |     256 |    0 |   228 |      0 |      0 |    0 |            0 |
|           ctrl            |          CtrlSet_74 |         89 |         89 |       0 |    0 |   100 |      0 |      0 |    0 |            0 |
|             (ctrl)        |          CtrlSet_74 |         30 |         30 |       0 |    0 |    96 |      0 |      0 |    0 |            0 |
|             BitPlruPolicy |  BitPlruPolicy_2_76 |         59 |         59 |       0 |    0 |     4 |      0 |      0 |    0 |            0 |
|           data            |          DataSet_75 |        368 |        112 |     256 |    0 |   128 |      0 |      0 |    0 |            0 |
|         set_14            |              Set_37 |        457 |        201 |     256 |    0 |   228 |      0 |      0 |    0 |            0 |
|           ctrl            |          CtrlSet_71 |         89 |         89 |       0 |    0 |   100 |      0 |      0 |    0 |            0 |
|             (ctrl)        |          CtrlSet_71 |         30 |         30 |       0 |    0 |    96 |      0 |      0 |    0 |            0 |
|             BitPlruPolicy |  BitPlruPolicy_2_73 |         59 |         59 |       0 |    0 |     4 |      0 |      0 |    0 |            0 |
|           data            |          DataSet_72 |        368 |        112 |     256 |    0 |   128 |      0 |      0 |    0 |            0 |
|         set_15            |              Set_38 |        591 |        335 |     256 |    0 |   228 |      0 |      0 |    0 |            0 |
|           ctrl            |          CtrlSet_68 |         95 |         95 |       0 |    0 |   100 |      0 |      0 |    0 |            0 |
|             (ctrl)        |          CtrlSet_68 |         36 |         36 |       0 |    0 |    96 |      0 |      0 |    0 |            0 |
|             BitPlruPolicy |  BitPlruPolicy_2_70 |         59 |         59 |       0 |    0 |     4 |      0 |      0 |    0 |            0 |
|           data            |          DataSet_69 |        496 |        240 |     256 |    0 |   128 |      0 |      0 |    0 |            0 |
|         set_2             |              Set_39 |        457 |        201 |     256 |    0 |   228 |      0 |      0 |    0 |            0 |
|           ctrl            |          CtrlSet_65 |         89 |         89 |       0 |    0 |   100 |      0 |      0 |    0 |            0 |
|             (ctrl)        |          CtrlSet_65 |         30 |         30 |       0 |    0 |    96 |      0 |      0 |    0 |            0 |
|             BitPlruPolicy |  BitPlruPolicy_2_67 |         59 |         59 |       0 |    0 |     4 |      0 |      0 |    0 |            0 |
|           data            |          DataSet_66 |        368 |        112 |     256 |    0 |   128 |      0 |      0 |    0 |            0 |
|         set_3             |              Set_40 |        585 |        329 |     256 |    0 |   244 |      0 |      0 |    0 |            0 |
|           ctrl            |          CtrlSet_62 |         89 |         89 |       0 |    0 |   100 |      0 |      0 |    0 |            0 |
|             (ctrl)        |          CtrlSet_62 |         30 |         30 |       0 |    0 |    96 |      0 |      0 |    0 |            0 |
|             BitPlruPolicy |  BitPlruPolicy_2_64 |         59 |         59 |       0 |    0 |     4 |      0 |      0 |    0 |            0 |
|           data            |          DataSet_63 |        496 |        240 |     256 |    0 |   144 |      0 |      0 |    0 |            0 |
|         set_4             |              Set_41 |        457 |        201 |     256 |    0 |   228 |      0 |      0 |    0 |            0 |
|           ctrl            |          CtrlSet_59 |         89 |         89 |       0 |    0 |   100 |      0 |      0 |    0 |            0 |
|             (ctrl)        |          CtrlSet_59 |         30 |         30 |       0 |    0 |    96 |      0 |      0 |    0 |            0 |
|             BitPlruPolicy |  BitPlruPolicy_2_61 |         59 |         59 |       0 |    0 |     4 |      0 |      0 |    0 |            0 |
|           data            |          DataSet_60 |        368 |        112 |     256 |    0 |   128 |      0 |      0 |    0 |            0 |
|         set_5             |              Set_42 |        457 |        201 |     256 |    0 |   228 |      0 |      0 |    0 |            0 |
|           ctrl            |          CtrlSet_56 |         89 |         89 |       0 |    0 |   100 |      0 |      0 |    0 |            0 |
|             (ctrl)        |          CtrlSet_56 |         30 |         30 |       0 |    0 |    96 |      0 |      0 |    0 |            0 |
|             BitPlruPolicy |  BitPlruPolicy_2_58 |         59 |         59 |       0 |    0 |     4 |      0 |      0 |    0 |            0 |
|           data            |          DataSet_57 |        368 |        112 |     256 |    0 |   128 |      0 |      0 |    0 |            0 |
|         set_6             |              Set_43 |        457 |        201 |     256 |    0 |   228 |      0 |      0 |    0 |            0 |
|           ctrl            |          CtrlSet_53 |         89 |         89 |       0 |    0 |   100 |      0 |      0 |    0 |            0 |
|             (ctrl)        |          CtrlSet_53 |         30 |         30 |       0 |    0 |    96 |      0 |      0 |    0 |            0 |
|             BitPlruPolicy |  BitPlruPolicy_2_55 |         59 |         59 |       0 |    0 |     4 |      0 |      0 |    0 |            0 |
|           data            |          DataSet_54 |        368 |        112 |     256 |    0 |   128 |      0 |      0 |    0 |            0 |
|         set_7             |              Set_44 |        585 |        329 |     256 |    0 |   228 |      0 |      0 |    0 |            0 |
|           ctrl            |          CtrlSet_50 |         89 |         89 |       0 |    0 |   100 |      0 |      0 |    0 |            0 |
|             (ctrl)        |          CtrlSet_50 |         30 |         30 |       0 |    0 |    96 |      0 |      0 |    0 |            0 |
|             BitPlruPolicy |  BitPlruPolicy_2_52 |         59 |         59 |       0 |    0 |     4 |      0 |      0 |    0 |            0 |
|           data            |          DataSet_51 |        496 |        240 |     256 |    0 |   128 |      0 |      0 |    0 |            0 |
|         set_8             |              Set_45 |        457 |        201 |     256 |    0 |   228 |      0 |      0 |    0 |            0 |
|           ctrl            |          CtrlSet_47 |         89 |         89 |       0 |    0 |   100 |      0 |      0 |    0 |            0 |
|             (ctrl)        |          CtrlSet_47 |         30 |         30 |       0 |    0 |    96 |      0 |      0 |    0 |            0 |
|             BitPlruPolicy |  BitPlruPolicy_2_49 |         59 |         59 |       0 |    0 |     4 |      0 |      0 |    0 |            0 |
|           data            |          DataSet_48 |        368 |        112 |     256 |    0 |   128 |      0 |      0 |    0 |            0 |
|         set_9             |              Set_46 |        457 |        201 |     256 |    0 |   228 |      0 |      0 |    0 |            0 |
|           ctrl            |             CtrlSet |         89 |         89 |       0 |    0 |   100 |      0 |      0 |    0 |            0 |
|             (ctrl)        |             CtrlSet |         30 |         30 |       0 |    0 |    96 |      0 |      0 |    0 |            0 |
|             BitPlruPolicy |     BitPlruPolicy_2 |         59 |         59 |       0 |    0 |     4 |      0 |      0 |    0 |            0 |
|           data            |             DataSet |        368 |        112 |     256 |    0 |   128 |      0 |      0 |    0 |            0 |
|     next                  |            NextCtrl |       4426 |       4426 |       0 |    0 |  1059 |      0 |      0 |    0 |            0 |
|       init                |         InitStage_2 |         49 |         49 |       0 |    0 |    79 |      0 |      0 |    0 |            0 |
|       mem                 |          MemStage_3 |       1301 |       1301 |       0 |    0 |    53 |      0 |      0 |    0 |            0 |
|         (mem)             |          MemStage_3 |        128 |        128 |       0 |    0 |     1 |      0 |      0 |    0 |            0 |
|         reg_ack_0         |           Fifo_6_28 |          5 |          5 |       0 |    0 |     2 |      0 |      0 |    0 |            0 |
|         reg_ack_1         |           Fifo_6_29 |          4 |          4 |       0 |    0 |     2 |      0 |      0 |    0 |            0 |
|         reg_bus_0         |             Fifo_12 |         15 |         15 |       0 |    0 |    24 |      0 |      0 |    0 |            0 |
|         reg_bus_1         |          Fifo_12_30 |       1149 |       1149 |       0 |    0 |    24 |      0 |      0 |    0 |            0 |
|       req                 |          ReqStage_3 |        653 |        653 |       0 |    0 |   129 |      0 |      0 |    0 |            0 |
|         reg_bus_0         |             Fifo_10 |         80 |         80 |       0 |    0 |    64 |      0 |      0 |    0 |            0 |
|         reg_bus_1         |          Fifo_10_26 |        571 |        571 |       0 |    0 |    64 |      0 |      0 |    0 |            0 |
|         slct              |       StableSlct_27 |          2 |          2 |       0 |    0 |     1 |      0 |      0 |    0 |            0 |
|       write               |        WriteStage_2 |       2423 |       2423 |       0 |    0 |   798 |      0 |      0 |    0 |            0 |
|         reg_data_0        |             Fifo_20 |         71 |         71 |       0 |    0 |   258 |      0 |      0 |    0 |            0 |
|         reg_data_1        |          Fifo_20_25 |        200 |        200 |       0 |    0 |   258 |      0 |      0 |    0 |            0 |
|         reg_write         |             Fifo_22 |       2152 |       2152 |       0 |    0 |   282 |      0 |      0 |    0 |            0 |
|     prev                  |            PrevCtrl |       1217 |       1217 |       0 |    0 |   205 |      0 |      0 |    0 |            0 |
|       pipe_0              |        PrevPipeline |        584 |        584 |       0 |    0 |   105 |      0 |      0 |    0 |            0 |
|         init              |        InitStage_20 |          0 |          0 |       0 |    0 |     1 |      0 |      0 |    0 |            0 |
|         read              |        ReadStage_21 |          8 |          8 |       0 |    0 |     7 |      0 |      0 |    0 |            0 |
|         req               |       ReqStage_1_22 |        512 |        512 |       0 |    0 |    32 |      0 |      0 |    0 |            0 |
|           (req)           |       ReqStage_1_22 |          0 |          0 |       0 |    0 |     1 |      0 |      0 |    0 |            0 |
|           reg_bus_0       |           Fifo_8_24 |        512 |        512 |       0 |    0 |    31 |      0 |      0 |    0 |            0 |
|         write             |       WriteStage_23 |         64 |         64 |       0 |    0 |    65 |      0 |      0 |    0 |            0 |
|       pipe_1              |     PrevPipeline_19 |        633 |        633 |       0 |    0 |   100 |      0 |      0 |    0 |            0 |
|         init              |           InitStage |          0 |          0 |       0 |    0 |     1 |      0 |      0 |    0 |            0 |
|         read              |           ReadStage |          3 |          3 |       0 |    0 |     2 |      0 |      0 |    0 |            0 |
|         req               |          ReqStage_1 |        566 |        566 |       0 |    0 |    32 |      0 |      0 |    0 |            0 |
|           (req)           |          ReqStage_1 |          0 |          0 |       0 |    0 |     1 |      0 |      0 |    0 |            0 |
|           reg_bus_0       |              Fifo_8 |        566 |        566 |       0 |    0 |    31 |      0 |      0 |    0 |            0 |
|         write             |          WriteStage |         64 |         64 |       0 |    0 |    65 |      0 |      0 |    0 |            0 |
|   pipe                    |            Pipeline |      19279 |      17231 |    2048 |    0 |  7791 |      0 |      0 |    0 |            0 |
|     back                  |                Back |      13170 |      13170 |       0 |    0 |  4776 |      0 |      0 |    0 |            0 |
|       (back)              |                Back |         22 |         22 |       0 |    0 |     0 |      0 |      0 |    0 |            0 |
|       bypass              |              Bypass |        190 |        190 |       0 |    0 |     0 |      0 |      0 |    0 |            0 |
|       csr                 |                 Csr |        198 |        198 |       0 |    0 |   834 |      0 |      0 |    0 |            0 |
|       ex                  |             ExStage |       2953 |       2953 |       0 |    0 |   520 |      0 |      0 |    0 |            0 |
|         (ex)              |             ExStage |       1855 |       1855 |       0 |    0 |   315 |      0 |      0 |    0 |            0 |
|         mamu_0            |                Mamu |          0 |          0 |       0 |    0 |     2 |      0 |      0 |    0 |            0 |
|         mamu_1            |             Mamu_18 |          0 |          0 |       0 |    0 |     2 |      0 |      0 |    0 |            0 |
|         muldiv_0          |              MulDiv |       1098 |       1098 |       0 |    0 |   201 |      0 |      0 |    0 |            0 |
|           (muldiv_0)      |              MulDiv |        904 |        904 |       0 |    0 |   201 |      0 |      0 |    0 |            0 |
|           divss           |         DivShiftSub |        194 |        194 |       0 |    0 |     0 |      0 |      0 |    0 |            0 |
|       gpr                 |                 Gpr |       5362 |       5362 |       0 |    0 |  1984 |      0 |      0 |    0 |            0 |
|       id                  |             IdStage |        240 |        240 |       0 |    0 |   294 |      0 |      0 |    0 |            0 |
|         (id)              |             IdStage |          2 |          2 |       0 |    0 |     0 |      0 |      0 |    0 |            0 |
|         unit_0            |              IdUnit |        147 |        147 |       0 |    0 |   147 |      0 |      0 |    0 |            0 |
|         unit_1            |           IdUnit_17 |         91 |         91 |       0 |    0 |   147 |      0 |      0 |    0 |            0 |
|       iss                 |            IssStage |       3202 |       3202 |       0 |    0 |   306 |      0 |      0 |    0 |            0 |
|       lsu                 |                 Lsu |        590 |        590 |       0 |    0 |   648 |      0 |      0 |    0 |            0 |
|         (lsu)             |                 Lsu |          0 |          0 |       0 |    0 |    66 |      0 |      0 |    0 |            0 |
|         fifo_bp_0         |              Fifo_4 |         48 |         48 |       0 |    0 |     8 |      0 |      0 |    0 |            0 |
|         fifo_bp_1         |           Fifo_4_14 |         14 |         14 |       0 |    0 |     8 |      0 |      0 |    0 |            0 |
|         fifo_dmem_0       |              Fifo_6 |          3 |          3 |       0 |    0 |     4 |      0 |      0 |    0 |            0 |
|         fifo_dmem_1       |           Fifo_6_15 |         70 |         70 |       0 |    0 |     4 |      0 |      0 |    0 |            0 |
|         fifo_req_0        |              Fifo_2 |        227 |        227 |       0 |    0 |   279 |      0 |      0 |    0 |            0 |
|         fifo_req_1        |           Fifo_2_16 |        228 |        228 |       0 |    0 |   279 |      0 |      0 |    0 |            0 |
|       mem                 |          MemStage_2 |        413 |        413 |       0 |    0 |   124 |      0 |      0 |    0 |            0 |
|         unit_0            |            MemStage |        212 |        212 |       0 |    0 |    62 |      0 |      0 |    0 |            0 |
|         unit_1            |         MemStage_13 |        201 |        201 |       0 |    0 |    62 |      0 |      0 |    0 |            0 |
|       wb                  |           WbStage_2 |          0 |          0 |       0 |    0 |    66 |      0 |      0 |    0 |            0 |
|         unit_0            |             WbStage |          0 |          0 |       0 |    0 |    33 |      0 |      0 |    0 |            0 |
|         unit_1            |          WbStage_12 |          0 |          0 |       0 |    0 |    33 |      0 |      0 |    0 |            0 |
|     front                 |             Front_2 |       4627 |       2579 |    2048 |    0 |  2274 |      0 |      0 |    0 |            0 |
|       unit_0              |               Front |       2315 |       1291 |    1024 |    0 |  1137 |      0 |      0 |    0 |            0 |
|         (unit_0)          |               Front |        254 |        254 |       0 |    0 |     0 |      0 |      0 |    0 |            0 |
|         if0               |          If0Stage_4 |          4 |          4 |       0 |    0 |    32 |      0 |      0 |    0 |            0 |
|         if2               |          If2Stage_5 |        254 |        254 |       0 |    0 |   252 |      0 |      0 |    0 |            0 |
|           (if2)           |          If2Stage_5 |          0 |          0 |       0 |    0 |     1 |      0 |      0 |    0 |            0 |
|           Fifo            |             Fifo_11 |        254 |        254 |       0 |    0 |   251 |      0 |      0 |    0 |            0 |
|         pc                |           PcStage_6 |       1803 |        779 |    1024 |    0 |   853 |      0 |      0 |    0 |            0 |
|           (pc)            |           PcStage_6 |          3 |          3 |       0 |    0 |    61 |      0 |      0 |    0 |            0 |
|           nlp             |               Nlp_7 |       1800 |        776 |    1024 |    0 |   792 |      0 |      0 |    0 |            0 |
|             bht           |               Bht_8 |       1129 |        105 |    1024 |    0 |     8 |      0 |      0 |    0 |            0 |
|             btb           |            HTable_9 |        671 |        671 |       0 |    0 |   784 |      0 |      0 |    0 |            0 |
|               (btb)       |            HTable_9 |        409 |        409 |       0 |    0 |   768 |      0 |      0 |    0 |            0 |
|               plru        |    BitPlruPolicy_10 |        262 |        262 |       0 |    0 |    16 |      0 |      0 |    0 |            0 |
|       unit_1              |             Front_3 |       2312 |       1288 |    1024 |    0 |  1137 |      0 |      0 |    0 |            0 |
|         (unit_1)          |             Front_3 |        254 |        254 |       0 |    0 |     0 |      0 |      0 |    0 |            0 |
|         if0               |            If0Stage |          3 |          3 |       0 |    0 |    32 |      0 |      0 |    0 |            0 |
|         if2               |            If2Stage |        252 |        252 |       0 |    0 |   252 |      0 |      0 |    0 |            0 |
|           (if2)           |            If2Stage |          0 |          0 |       0 |    0 |     1 |      0 |      0 |    0 |            0 |
|           Fifo            |                Fifo |        252 |        252 |       0 |    0 |   251 |      0 |      0 |    0 |            0 |
|         pc                |             PcStage |       1803 |        779 |    1024 |    0 |   853 |      0 |      0 |    0 |            0 |
|           (pc)            |             PcStage |          3 |          3 |       0 |    0 |    61 |      0 |      0 |    0 |            0 |
|           nlp             |                 Nlp |       1800 |        776 |    1024 |    0 |   792 |      0 |      0 |    0 |            0 |
|             bht           |                 Bht |       1129 |        105 |    1024 |    0 |     8 |      0 |      0 |    0 |            0 |
|             btb           |              HTable |        671 |        671 |       0 |    0 |   784 |      0 |      0 |    0 |            0 |
|               (btb)       |              HTable |        409 |        409 |       0 |    0 |   768 |      0 |      0 |    0 |            0 |
|               plru        |       BitPlruPolicy |        262 |        262 |       0 |    0 |    16 |      0 |      0 |    0 |            0 |
|     rmu                   |                 Rmu |       1484 |       1484 |       0 |    0 |   741 |      0 |      0 |    0 |            0 |
|       backport            |           Exclusive |        221 |        221 |       0 |    0 |    12 |      0 |      0 |    0 |            0 |
|       commitstage         |         CommitStage |         33 |         33 |       0 |    0 |    15 |      0 |      0 |    0 |            0 |
|         unit_0            |          CommitUnit |         11 |         11 |       0 |    0 |     6 |      0 |      0 |    0 |            0 |
|           (unit_0)        |          CommitUnit |          2 |          2 |       0 |    0 |     2 |      0 |      0 |    0 |            0 |
|           flush_counter   |           Counter_1 |          9 |          9 |       0 |    0 |     4 |      0 |      0 |    0 |            0 |
|         unit_1            |        CommitUnit_0 |         22 |         22 |       0 |    0 |     9 |      0 |      0 |    0 |            0 |
|           (unit_1)        |        CommitUnit_0 |         10 |         10 |       0 |    0 |     5 |      0 |      0 |    0 |            0 |
|           flush_counter   |             Counter |         12 |         12 |       0 |    0 |     4 |      0 |      0 |    0 |            0 |
|       hart                |                Hart |        433 |        433 |       0 |    0 |    17 |      0 |      0 |    0 |            0 |
|       hartstage           |           HartStage |         64 |         64 |       0 |    0 |   209 |      0 |      0 |    0 |            0 |
|       hsc                 |                 Hsc |         60 |         60 |       0 |    0 |    76 |      0 |      0 |    0 |            0 |
|       muldiv              |           Inclusive |         13 |         13 |       0 |    0 |     8 |      0 |      0 |    0 |            0 |
|       reqstage            |            ReqStage |         79 |         79 |       0 |    0 |   199 |      0 |      0 |    0 |            0 |
|         (reqstage)        |            ReqStage |          6 |          6 |       0 |    0 |   198 |      0 |      0 |    0 |            0 |
|         slct              |          StableSlct |         73 |         73 |       0 |    0 |     1 |      0 |      0 |    0 |            0 |
|       unitstage           |           UnitStage |        581 |        581 |       0 |    0 |   205 |      0 |      0 |    0 |            0 |
+---------------------------+---------------------+------------+------------+---------+------+-------+--------+--------+------+--------------+


