Copyright 1986-2019 Xilinx, Inc. All Rights Reserved.
----------------------------------------------------------------------------------------------
| Tool Version : Vivado v.2019.2 (lin64) Build 2708876 Wed Nov  6 21:39:14 MST 2019
| Date         : Tue Oct  6 18:38:02 2020
| Host         : tyranocif running 64-bit Ubuntu 20.04.1 LTS
| Command      : report_utilization -hierarchical -file aubracupnlp/reports/impl_use_hier.txt
| Design       : Aubrac
| Device       : xczu7evffvc1156-2
| Design State : Physopt postRoute
----------------------------------------------------------------------------------------------

Utilization Design Information

Table of Contents
-----------------
1. Utilization by Hierarchy

1. Utilization by Hierarchy
---------------------------

+---------------------------+---------------------+------------+------------+---------+------+------+--------+--------+------+--------------+
|          Instance         |        Module       | Total LUTs | Logic LUTs | LUTRAMs | SRLs |  FFs | RAMB36 | RAMB18 | URAM | DSP48 Blocks |
+---------------------------+---------------------+------------+------------+---------+------+------+--------+--------+------+--------------+
| Aubrac                    |               (top) |      27410 |      22290 |    5120 |    0 | 9237 |      0 |      0 |    0 |            0 |
|   (Aubrac)                |               (top) |          0 |          0 |       0 |    0 |    0 |      0 |      0 |    0 |            0 |
|   l1dcache                |           Manseng_1 |      14496 |      12448 |    2048 |    0 | 3372 |      0 |      0 |    0 |            0 |
|     cache                 |             Cache_1 |       5732 |       3684 |    2048 |    0 | 2711 |      0 |      0 |    0 |            0 |
|       subcache_0          |          SubCache_1 |       5732 |       3684 |    2048 |    0 | 2711 |      0 |      0 |    0 |            0 |
|         (subcache_0)      |          SubCache_1 |          0 |          0 |       0 |    0 |    4 |      0 |      0 |    0 |            0 |
|         set_0             |              Set_16 |        342 |        214 |     128 |    0 |  164 |      0 |      0 |    0 |            0 |
|           (set_0)         |              Set_16 |         53 |         53 |       0 |    0 |    0 |      0 |      0 |    0 |            0 |
|           ctrl            |      CtrlSet_16_120 |         33 |         33 |       0 |    0 |  100 |      0 |      0 |    0 |            0 |
|             (ctrl)        |      CtrlSet_16_120 |         10 |         10 |       0 |    0 |   96 |      0 |      0 |    0 |            0 |
|             BitPlruPolicy | BitPlruPolicy_1_122 |         23 |         23 |       0 |    0 |    4 |      0 |      0 |    0 |            0 |
|           data            |         DataSet_121 |        256 |        128 |     128 |    0 |   64 |      0 |      0 |    0 |            0 |
|         set_1             |           Set_16_61 |        342 |        214 |     128 |    0 |  164 |      0 |      0 |    0 |            0 |
|           (set_1)         |           Set_16_61 |         53 |         53 |       0 |    0 |    0 |      0 |      0 |    0 |            0 |
|           ctrl            |      CtrlSet_16_117 |         33 |         33 |       0 |    0 |  100 |      0 |      0 |    0 |            0 |
|             (ctrl)        |      CtrlSet_16_117 |         10 |         10 |       0 |    0 |   96 |      0 |      0 |    0 |            0 |
|             BitPlruPolicy | BitPlruPolicy_1_119 |         23 |         23 |       0 |    0 |    4 |      0 |      0 |    0 |            0 |
|           data            |         DataSet_118 |        256 |        128 |     128 |    0 |   64 |      0 |      0 |    0 |            0 |
|         set_10            |           Set_16_62 |        342 |        214 |     128 |    0 |  164 |      0 |      0 |    0 |            0 |
|           (set_10)        |           Set_16_62 |         53 |         53 |       0 |    0 |    0 |      0 |      0 |    0 |            0 |
|           ctrl            |      CtrlSet_16_114 |         33 |         33 |       0 |    0 |  100 |      0 |      0 |    0 |            0 |
|             (ctrl)        |      CtrlSet_16_114 |         10 |         10 |       0 |    0 |   96 |      0 |      0 |    0 |            0 |
|             BitPlruPolicy | BitPlruPolicy_1_116 |         23 |         23 |       0 |    0 |    4 |      0 |      0 |    0 |            0 |
|           data            |         DataSet_115 |        256 |        128 |     128 |    0 |   64 |      0 |      0 |    0 |            0 |
|         set_11            |           Set_16_63 |        343 |        215 |     128 |    0 |  164 |      0 |      0 |    0 |            0 |
|           (set_11)        |           Set_16_63 |         53 |         53 |       0 |    0 |    0 |      0 |      0 |    0 |            0 |
|           ctrl            |      CtrlSet_16_111 |         34 |         34 |       0 |    0 |  100 |      0 |      0 |    0 |            0 |
|             (ctrl)        |      CtrlSet_16_111 |         11 |         11 |       0 |    0 |   96 |      0 |      0 |    0 |            0 |
|             BitPlruPolicy | BitPlruPolicy_1_113 |         23 |         23 |       0 |    0 |    4 |      0 |      0 |    0 |            0 |
|           data            |         DataSet_112 |        256 |        128 |     128 |    0 |   64 |      0 |      0 |    0 |            0 |
|         set_12            |           Set_16_64 |        342 |        214 |     128 |    0 |  164 |      0 |      0 |    0 |            0 |
|           (set_12)        |           Set_16_64 |         54 |         54 |       0 |    0 |    0 |      0 |      0 |    0 |            0 |
|           ctrl            |      CtrlSet_16_108 |         32 |         32 |       0 |    0 |  100 |      0 |      0 |    0 |            0 |
|             (ctrl)        |      CtrlSet_16_108 |          9 |          9 |       0 |    0 |   96 |      0 |      0 |    0 |            0 |
|             BitPlruPolicy | BitPlruPolicy_1_110 |         23 |         23 |       0 |    0 |    4 |      0 |      0 |    0 |            0 |
|           data            |         DataSet_109 |        256 |        128 |     128 |    0 |   64 |      0 |      0 |    0 |            0 |
|         set_13            |           Set_16_65 |        345 |        217 |     128 |    0 |  164 |      0 |      0 |    0 |            0 |
|           (set_13)        |           Set_16_65 |         56 |         56 |       0 |    0 |    0 |      0 |      0 |    0 |            0 |
|           ctrl            |      CtrlSet_16_105 |         33 |         33 |       0 |    0 |  100 |      0 |      0 |    0 |            0 |
|             (ctrl)        |      CtrlSet_16_105 |         10 |         10 |       0 |    0 |   96 |      0 |      0 |    0 |            0 |
|             BitPlruPolicy | BitPlruPolicy_1_107 |         23 |         23 |       0 |    0 |    4 |      0 |      0 |    0 |            0 |
|           data            |         DataSet_106 |        256 |        128 |     128 |    0 |   64 |      0 |      0 |    0 |            0 |
|         set_14            |           Set_16_66 |        342 |        214 |     128 |    0 |  164 |      0 |      0 |    0 |            0 |
|           (set_14)        |           Set_16_66 |         53 |         53 |       0 |    0 |    0 |      0 |      0 |    0 |            0 |
|           ctrl            |      CtrlSet_16_102 |         33 |         33 |       0 |    0 |  100 |      0 |      0 |    0 |            0 |
|             (ctrl)        |      CtrlSet_16_102 |         10 |         10 |       0 |    0 |   96 |      0 |      0 |    0 |            0 |
|             BitPlruPolicy | BitPlruPolicy_1_104 |         23 |         23 |       0 |    0 |    4 |      0 |      0 |    0 |            0 |
|           data            |         DataSet_103 |        256 |        128 |     128 |    0 |   64 |      0 |      0 |    0 |            0 |
|         set_15            |           Set_16_67 |        345 |        217 |     128 |    0 |  164 |      0 |      0 |    0 |            0 |
|           (set_15)        |           Set_16_67 |         53 |         53 |       0 |    0 |    0 |      0 |      0 |    0 |            0 |
|           ctrl            |       CtrlSet_16_99 |         36 |         36 |       0 |    0 |  100 |      0 |      0 |    0 |            0 |
|             (ctrl)        |       CtrlSet_16_99 |         13 |         13 |       0 |    0 |   96 |      0 |      0 |    0 |            0 |
|             BitPlruPolicy | BitPlruPolicy_1_101 |         23 |         23 |       0 |    0 |    4 |      0 |      0 |    0 |            0 |
|           data            |         DataSet_100 |        256 |        128 |     128 |    0 |   64 |      0 |      0 |    0 |            0 |
|         set_2             |           Set_16_68 |        343 |        215 |     128 |    0 |  164 |      0 |      0 |    0 |            0 |
|           (set_2)         |           Set_16_68 |         54 |         54 |       0 |    0 |    0 |      0 |      0 |    0 |            0 |
|           ctrl            |       CtrlSet_16_96 |         33 |         33 |       0 |    0 |  100 |      0 |      0 |    0 |            0 |
|             (ctrl)        |       CtrlSet_16_96 |         10 |         10 |       0 |    0 |   96 |      0 |      0 |    0 |            0 |
|             BitPlruPolicy |  BitPlruPolicy_1_98 |         23 |         23 |       0 |    0 |    4 |      0 |      0 |    0 |            0 |
|           data            |          DataSet_97 |        256 |        128 |     128 |    0 |   64 |      0 |      0 |    0 |            0 |
|         set_3             |           Set_16_69 |        599 |        471 |     128 |    0 |  247 |      0 |      0 |    0 |            0 |
|           (set_3)         |           Set_16_69 |         53 |         53 |       0 |    0 |    0 |      0 |      0 |    0 |            0 |
|           ctrl            |       CtrlSet_16_93 |         34 |         34 |       0 |    0 |  100 |      0 |      0 |    0 |            0 |
|             (ctrl)        |       CtrlSet_16_93 |         11 |         11 |       0 |    0 |   96 |      0 |      0 |    0 |            0 |
|             BitPlruPolicy |  BitPlruPolicy_1_95 |         23 |         23 |       0 |    0 |    4 |      0 |      0 |    0 |            0 |
|           data            |          DataSet_94 |        512 |        384 |     128 |    0 |  147 |      0 |      0 |    0 |            0 |
|         set_4             |           Set_16_70 |        343 |        215 |     128 |    0 |  164 |      0 |      0 |    0 |            0 |
|           (set_4)         |           Set_16_70 |         54 |         54 |       0 |    0 |    0 |      0 |      0 |    0 |            0 |
|           ctrl            |       CtrlSet_16_90 |         33 |         33 |       0 |    0 |  100 |      0 |      0 |    0 |            0 |
|             (ctrl)        |       CtrlSet_16_90 |         10 |         10 |       0 |    0 |   96 |      0 |      0 |    0 |            0 |
|             BitPlruPolicy |  BitPlruPolicy_1_92 |         23 |         23 |       0 |    0 |    4 |      0 |      0 |    0 |            0 |
|           data            |          DataSet_91 |        256 |        128 |     128 |    0 |   64 |      0 |      0 |    0 |            0 |
|         set_5             |           Set_16_71 |        342 |        214 |     128 |    0 |  164 |      0 |      0 |    0 |            0 |
|           (set_5)         |           Set_16_71 |         53 |         53 |       0 |    0 |    0 |      0 |      0 |    0 |            0 |
|           ctrl            |       CtrlSet_16_87 |         33 |         33 |       0 |    0 |  100 |      0 |      0 |    0 |            0 |
|             (ctrl)        |       CtrlSet_16_87 |         10 |         10 |       0 |    0 |   96 |      0 |      0 |    0 |            0 |
|             BitPlruPolicy |  BitPlruPolicy_1_89 |         23 |         23 |       0 |    0 |    4 |      0 |      0 |    0 |            0 |
|           data            |          DataSet_88 |        256 |        128 |     128 |    0 |   64 |      0 |      0 |    0 |            0 |
|         set_6             |           Set_16_72 |        342 |        214 |     128 |    0 |  164 |      0 |      0 |    0 |            0 |
|           (set_6)         |           Set_16_72 |         53 |         53 |       0 |    0 |    0 |      0 |      0 |    0 |            0 |
|           ctrl            |       CtrlSet_16_84 |         33 |         33 |       0 |    0 |  100 |      0 |      0 |    0 |            0 |
|             (ctrl)        |       CtrlSet_16_84 |         10 |         10 |       0 |    0 |   96 |      0 |      0 |    0 |            0 |
|             BitPlruPolicy |  BitPlruPolicy_1_86 |         23 |         23 |       0 |    0 |    4 |      0 |      0 |    0 |            0 |
|           data            |          DataSet_85 |        256 |        128 |     128 |    0 |   64 |      0 |      0 |    0 |            0 |
|         set_7             |           Set_16_73 |        343 |        215 |     128 |    0 |  164 |      0 |      0 |    0 |            0 |
|           (set_7)         |           Set_16_73 |         53 |         53 |       0 |    0 |    0 |      0 |      0 |    0 |            0 |
|           ctrl            |       CtrlSet_16_81 |         34 |         34 |       0 |    0 |  100 |      0 |      0 |    0 |            0 |
|             (ctrl)        |       CtrlSet_16_81 |         11 |         11 |       0 |    0 |   96 |      0 |      0 |    0 |            0 |
|             BitPlruPolicy |  BitPlruPolicy_1_83 |         23 |         23 |       0 |    0 |    4 |      0 |      0 |    0 |            0 |
|           data            |          DataSet_82 |        256 |        128 |     128 |    0 |   64 |      0 |      0 |    0 |            0 |
|         set_8             |           Set_16_74 |        342 |        214 |     128 |    0 |  164 |      0 |      0 |    0 |            0 |
|           (set_8)         |           Set_16_74 |         53 |         53 |       0 |    0 |    0 |      0 |      0 |    0 |            0 |
|           ctrl            |       CtrlSet_16_78 |         33 |         33 |       0 |    0 |  100 |      0 |      0 |    0 |            0 |
|             (ctrl)        |       CtrlSet_16_78 |         10 |         10 |       0 |    0 |   96 |      0 |      0 |    0 |            0 |
|             BitPlruPolicy |  BitPlruPolicy_1_80 |         23 |         23 |       0 |    0 |    4 |      0 |      0 |    0 |            0 |
|           data            |          DataSet_79 |        256 |        128 |     128 |    0 |   64 |      0 |      0 |    0 |            0 |
|         set_9             |           Set_16_75 |        341 |        213 |     128 |    0 |  164 |      0 |      0 |    0 |            0 |
|           (set_9)         |           Set_16_75 |         53 |         53 |       0 |    0 |    0 |      0 |      0 |    0 |            0 |
|           ctrl            |          CtrlSet_16 |         32 |         32 |       0 |    0 |  100 |      0 |      0 |    0 |            0 |
|             (ctrl)        |          CtrlSet_16 |          9 |          9 |       0 |    0 |   96 |      0 |      0 |    0 |            0 |
|             BitPlruPolicy |  BitPlruPolicy_1_77 |         23 |         23 |       0 |    0 |    4 |      0 |      0 |    0 |            0 |
|           data            |          DataSet_76 |        256 |        128 |     128 |    0 |   64 |      0 |      0 |    0 |            0 |
|     next                  |          NextCtrl_1 |       7780 |       7780 |       0 |    0 |  510 |      0 |      0 |    0 |            0 |
|       init                |         InitStage_3 |         21 |         21 |       0 |    0 |   76 |      0 |      0 |    0 |            0 |
|       mem                 |          MemStage_2 |       5219 |       5219 |       0 |    0 |   40 |      0 |      0 |    0 |            0 |
|         Fifo              |              Fifo_5 |          4 |          4 |       0 |    0 |    2 |      0 |      0 |    0 |            0 |
|         reg_ack_0         |           Fifo_4_60 |          2 |          2 |       0 |    0 |    2 |      0 |      0 |    0 |            0 |
|         reg_bus_0         |              Fifo_9 |       5213 |       5213 |       0 |    0 |   36 |      0 |      0 |    0 |            0 |
|       req                 |          ReqStage_3 |        483 |        483 |       0 |    0 |  136 |      0 |      0 |    0 |            0 |
|         reg_bus_0         |              Fifo_8 |        483 |        483 |       0 |    0 |  136 |      0 |      0 |    0 |            0 |
|       write               |        WriteStage_3 |       2059 |       2059 |       0 |    0 |  258 |      0 |      0 |    0 |            0 |
|         reg_data_0        |              Fifo_6 |       2059 |       2059 |       0 |    0 |  258 |      0 |      0 |    0 |            0 |
|     prev                  |          PrevCtrl_1 |       1000 |       1000 |       0 |    0 |  151 |      0 |      0 |    0 |            0 |
|       pipe_0              |      PrevPipeline_1 |       1000 |       1000 |       0 |    0 |  151 |      0 |      0 |    0 |            0 |
|         init              |         InitStage_2 |          1 |          1 |       0 |    0 |    1 |      0 |      0 |    0 |            0 |
|         read              |         ReadStage_1 |        319 |        319 |       0 |    0 |   48 |      0 |      0 |    0 |            0 |
|         req               |          ReqStage_2 |        659 |        659 |       0 |    0 |   68 |      0 |      0 |    0 |            0 |
|           reg_bus_0       |              Fifo_7 |        659 |        659 |       0 |    0 |   68 |      0 |      0 |    0 |            0 |
|         write             |        WriteStage_2 |         22 |         22 |       0 |    0 |   34 |      0 |      0 |    0 |            0 |
|   l1icache                |             Manseng |       6432 |       4384 |    2048 |    0 | 2884 |      0 |      0 |    0 |            0 |
|     cache                 |               Cache |       4667 |       2619 |    2048 |    0 | 2638 |      0 |      0 |    0 |            0 |
|       subcache_0          |            SubCache |       4667 |       2619 |    2048 |    0 | 2638 |      0 |      0 |    0 |            0 |
|         (subcache_0)      |            SubCache |          0 |          0 |       0 |    0 |    6 |      0 |      0 |    0 |            0 |
|         set_0             |                 Set |        263 |        135 |     128 |    0 |  164 |      0 |      0 |    0 |            0 |
|           (set_0)         |                 Set |         21 |         21 |       0 |    0 |    0 |      0 |      0 |    0 |            0 |
|           ctrl            |          CtrlSet_57 |         82 |         82 |       0 |    0 |  100 |      0 |      0 |    0 |            0 |
|             (ctrl)        |          CtrlSet_57 |          9 |          9 |       0 |    0 |   96 |      0 |      0 |    0 |            0 |
|             BitPlruPolicy |  BitPlruPolicy_1_59 |         74 |         74 |       0 |    0 |    4 |      0 |      0 |    0 |            0 |
|           data            |          DataSet_58 |        160 |         32 |     128 |    0 |   64 |      0 |      0 |    0 |            0 |
|         set_1             |               Set_0 |        275 |        147 |     128 |    0 |  164 |      0 |      0 |    0 |            0 |
|           (set_1)         |               Set_0 |         20 |         20 |       0 |    0 |    0 |      0 |      0 |    0 |            0 |
|           ctrl            |          CtrlSet_54 |         95 |         95 |       0 |    0 |  100 |      0 |      0 |    0 |            0 |
|             (ctrl)        |          CtrlSet_54 |         37 |         37 |       0 |    0 |   96 |      0 |      0 |    0 |            0 |
|             BitPlruPolicy |  BitPlruPolicy_1_56 |         60 |         60 |       0 |    0 |    4 |      0 |      0 |    0 |            0 |
|           data            |          DataSet_55 |        160 |         32 |     128 |    0 |   64 |      0 |      0 |    0 |            0 |
|         set_10            |               Set_1 |        274 |        146 |     128 |    0 |  164 |      0 |      0 |    0 |            0 |
|           (set_10)        |               Set_1 |         20 |         20 |       0 |    0 |    0 |      0 |      0 |    0 |            0 |
|           ctrl            |          CtrlSet_51 |         94 |         94 |       0 |    0 |  100 |      0 |      0 |    0 |            0 |
|             (ctrl)        |          CtrlSet_51 |         36 |         36 |       0 |    0 |   96 |      0 |      0 |    0 |            0 |
|             BitPlruPolicy |  BitPlruPolicy_1_53 |         60 |         60 |       0 |    0 |    4 |      0 |      0 |    0 |            0 |
|           data            |          DataSet_52 |        160 |         32 |     128 |    0 |   64 |      0 |      0 |    0 |            0 |
|         set_11            |               Set_2 |        344 |        216 |     128 |    0 |  164 |      0 |      0 |    0 |            0 |
|           (set_11)        |               Set_2 |         20 |         20 |       0 |    0 |    0 |      0 |      0 |    0 |            0 |
|           ctrl            |          CtrlSet_48 |        100 |        100 |       0 |    0 |  100 |      0 |      0 |    0 |            0 |
|             (ctrl)        |          CtrlSet_48 |         40 |         40 |       0 |    0 |   96 |      0 |      0 |    0 |            0 |
|             BitPlruPolicy |  BitPlruPolicy_1_50 |         62 |         62 |       0 |    0 |    4 |      0 |      0 |    0 |            0 |
|           data            |          DataSet_49 |        224 |         96 |     128 |    0 |   64 |      0 |      0 |    0 |            0 |
|         set_12            |               Set_3 |        274 |        146 |     128 |    0 |  164 |      0 |      0 |    0 |            0 |
|           (set_12)        |               Set_3 |         20 |         20 |       0 |    0 |    0 |      0 |      0 |    0 |            0 |
|           ctrl            |          CtrlSet_45 |         94 |         94 |       0 |    0 |  100 |      0 |      0 |    0 |            0 |
|             (ctrl)        |          CtrlSet_45 |         36 |         36 |       0 |    0 |   96 |      0 |      0 |    0 |            0 |
|             BitPlruPolicy |  BitPlruPolicy_1_47 |         60 |         60 |       0 |    0 |    4 |      0 |      0 |    0 |            0 |
|           data            |          DataSet_46 |        160 |         32 |     128 |    0 |   64 |      0 |      0 |    0 |            0 |
|         set_13            |               Set_4 |        274 |        146 |     128 |    0 |  164 |      0 |      0 |    0 |            0 |
|           (set_13)        |               Set_4 |         20 |         20 |       0 |    0 |    0 |      0 |      0 |    0 |            0 |
|           ctrl            |          CtrlSet_42 |         94 |         94 |       0 |    0 |  100 |      0 |      0 |    0 |            0 |
|             (ctrl)        |          CtrlSet_42 |         36 |         36 |       0 |    0 |   96 |      0 |      0 |    0 |            0 |
|             BitPlruPolicy |  BitPlruPolicy_1_44 |         60 |         60 |       0 |    0 |    4 |      0 |      0 |    0 |            0 |
|           data            |          DataSet_43 |        160 |         32 |     128 |    0 |   64 |      0 |      0 |    0 |            0 |
|         set_14            |               Set_5 |        274 |        146 |     128 |    0 |  164 |      0 |      0 |    0 |            0 |
|           (set_14)        |               Set_5 |         20 |         20 |       0 |    0 |    0 |      0 |      0 |    0 |            0 |
|           ctrl            |          CtrlSet_39 |         94 |         94 |       0 |    0 |  100 |      0 |      0 |    0 |            0 |
|             (ctrl)        |          CtrlSet_39 |         36 |         36 |       0 |    0 |   96 |      0 |      0 |    0 |            0 |
|             BitPlruPolicy |  BitPlruPolicy_1_41 |         60 |         60 |       0 |    0 |    4 |      0 |      0 |    0 |            0 |
|           data            |          DataSet_40 |        160 |         32 |     128 |    0 |   64 |      0 |      0 |    0 |            0 |
|         set_15            |               Set_6 |        351 |        223 |     128 |    0 |  164 |      0 |      0 |    0 |            0 |
|           (set_15)        |               Set_6 |         20 |         20 |       0 |    0 |    0 |      0 |      0 |    0 |            0 |
|           ctrl            |          CtrlSet_36 |        107 |        107 |       0 |    0 |  100 |      0 |      0 |    0 |            0 |
|             (ctrl)        |          CtrlSet_36 |         47 |         47 |       0 |    0 |   96 |      0 |      0 |    0 |            0 |
|             BitPlruPolicy |  BitPlruPolicy_1_38 |         62 |         62 |       0 |    0 |    4 |      0 |      0 |    0 |            0 |
|           data            |          DataSet_37 |        224 |         96 |     128 |    0 |   64 |      0 |      0 |    0 |            0 |
|         set_2             |               Set_7 |        274 |        146 |     128 |    0 |  164 |      0 |      0 |    0 |            0 |
|           (set_2)         |               Set_7 |         20 |         20 |       0 |    0 |    0 |      0 |      0 |    0 |            0 |
|           ctrl            |          CtrlSet_33 |         94 |         94 |       0 |    0 |  100 |      0 |      0 |    0 |            0 |
|             (ctrl)        |          CtrlSet_33 |         36 |         36 |       0 |    0 |   96 |      0 |      0 |    0 |            0 |
|             BitPlruPolicy |  BitPlruPolicy_1_35 |         60 |         60 |       0 |    0 |    4 |      0 |      0 |    0 |            0 |
|           data            |          DataSet_34 |        160 |         32 |     128 |    0 |   64 |      0 |      0 |    0 |            0 |
|         set_3             |               Set_8 |        346 |        218 |     128 |    0 |  172 |      0 |      0 |    0 |            0 |
|           (set_3)         |               Set_8 |         20 |         20 |       0 |    0 |    0 |      0 |      0 |    0 |            0 |
|           ctrl            |          CtrlSet_30 |        102 |        102 |       0 |    0 |  100 |      0 |      0 |    0 |            0 |
|             (ctrl)        |          CtrlSet_30 |         42 |         42 |       0 |    0 |   96 |      0 |      0 |    0 |            0 |
|             BitPlruPolicy |  BitPlruPolicy_1_32 |         62 |         62 |       0 |    0 |    4 |      0 |      0 |    0 |            0 |
|           data            |          DataSet_31 |        224 |         96 |     128 |    0 |   72 |      0 |      0 |    0 |            0 |
|         set_4             |               Set_9 |        274 |        146 |     128 |    0 |  164 |      0 |      0 |    0 |            0 |
|           (set_4)         |               Set_9 |         20 |         20 |       0 |    0 |    0 |      0 |      0 |    0 |            0 |
|           ctrl            |          CtrlSet_27 |         94 |         94 |       0 |    0 |  100 |      0 |      0 |    0 |            0 |
|             (ctrl)        |          CtrlSet_27 |         36 |         36 |       0 |    0 |   96 |      0 |      0 |    0 |            0 |
|             BitPlruPolicy |  BitPlruPolicy_1_29 |         60 |         60 |       0 |    0 |    4 |      0 |      0 |    0 |            0 |
|           data            |          DataSet_28 |        160 |         32 |     128 |    0 |   64 |      0 |      0 |    0 |            0 |
|         set_5             |              Set_10 |        275 |        147 |     128 |    0 |  164 |      0 |      0 |    0 |            0 |
|           (set_5)         |              Set_10 |         20 |         20 |       0 |    0 |    0 |      0 |      0 |    0 |            0 |
|           ctrl            |          CtrlSet_24 |         95 |         95 |       0 |    0 |  100 |      0 |      0 |    0 |            0 |
|             (ctrl)        |          CtrlSet_24 |         37 |         37 |       0 |    0 |   96 |      0 |      0 |    0 |            0 |
|             BitPlruPolicy |  BitPlruPolicy_1_26 |         60 |         60 |       0 |    0 |    4 |      0 |      0 |    0 |            0 |
|           data            |          DataSet_25 |        160 |         32 |     128 |    0 |   64 |      0 |      0 |    0 |            0 |
|         set_6             |              Set_11 |        274 |        146 |     128 |    0 |  164 |      0 |      0 |    0 |            0 |
|           (set_6)         |              Set_11 |         20 |         20 |       0 |    0 |    0 |      0 |      0 |    0 |            0 |
|           ctrl            |          CtrlSet_21 |         94 |         94 |       0 |    0 |  100 |      0 |      0 |    0 |            0 |
|             (ctrl)        |          CtrlSet_21 |         36 |         36 |       0 |    0 |   96 |      0 |      0 |    0 |            0 |
|             BitPlruPolicy |  BitPlruPolicy_1_23 |         60 |         60 |       0 |    0 |    4 |      0 |      0 |    0 |            0 |
|           data            |          DataSet_22 |        160 |         32 |     128 |    0 |   64 |      0 |      0 |    0 |            0 |
|         set_7             |              Set_12 |        347 |        219 |     128 |    0 |  164 |      0 |      0 |    0 |            0 |
|           (set_7)         |              Set_12 |         20 |         20 |       0 |    0 |    0 |      0 |      0 |    0 |            0 |
|           ctrl            |          CtrlSet_18 |        103 |        103 |       0 |    0 |  100 |      0 |      0 |    0 |            0 |
|             (ctrl)        |          CtrlSet_18 |         43 |         43 |       0 |    0 |   96 |      0 |      0 |    0 |            0 |
|             BitPlruPolicy |  BitPlruPolicy_1_20 |         62 |         62 |       0 |    0 |    4 |      0 |      0 |    0 |            0 |
|           data            |          DataSet_19 |        224 |         96 |     128 |    0 |   64 |      0 |      0 |    0 |            0 |
|         set_8             |              Set_13 |        274 |        146 |     128 |    0 |  164 |      0 |      0 |    0 |            0 |
|           (set_8)         |              Set_13 |         20 |         20 |       0 |    0 |    0 |      0 |      0 |    0 |            0 |
|           ctrl            |          CtrlSet_15 |         94 |         94 |       0 |    0 |  100 |      0 |      0 |    0 |            0 |
|             (ctrl)        |          CtrlSet_15 |         36 |         36 |       0 |    0 |   96 |      0 |      0 |    0 |            0 |
|             BitPlruPolicy |  BitPlruPolicy_1_17 |         60 |         60 |       0 |    0 |    4 |      0 |      0 |    0 |            0 |
|           data            |          DataSet_16 |        160 |         32 |     128 |    0 |   64 |      0 |      0 |    0 |            0 |
|         set_9             |              Set_14 |        274 |        146 |     128 |    0 |  164 |      0 |      0 |    0 |            0 |
|           (set_9)         |              Set_14 |         20 |         20 |       0 |    0 |    0 |      0 |      0 |    0 |            0 |
|           ctrl            |             CtrlSet |         94 |         94 |       0 |    0 |  100 |      0 |      0 |    0 |            0 |
|             (ctrl)        |             CtrlSet |         36 |         36 |       0 |    0 |   96 |      0 |      0 |    0 |            0 |
|             BitPlruPolicy |     BitPlruPolicy_1 |         60 |         60 |       0 |    0 |    4 |      0 |      0 |    0 |            0 |
|           data            |             DataSet |        160 |         32 |     128 |    0 |   64 |      0 |      0 |    0 |            0 |
|     next                  |            NextCtrl |       1526 |       1526 |       0 |    0 |  143 |      0 |      0 |    0 |            0 |
|       init                |         InitStage_1 |         15 |         15 |       0 |    0 |   39 |      0 |      0 |    0 |            0 |
|       mem                 |          MemStage_1 |       1330 |       1330 |       0 |    0 |   42 |      0 |      0 |    0 |            0 |
|         reg_ack_0         |              Fifo_4 |          3 |          3 |       0 |    0 |    2 |      0 |      0 |    0 |            0 |
|         reg_bus_0         |              Fifo_3 |       1327 |       1327 |       0 |    0 |   40 |      0 |      0 |    0 |            0 |
|       req                 |          ReqStage_1 |        182 |        182 |       0 |    0 |   62 |      0 |      0 |    0 |            0 |
|         reg_bus_0         |              Fifo_2 |        182 |        182 |       0 |    0 |   62 |      0 |      0 |    0 |            0 |
|     prev                  |            PrevCtrl |        254 |        254 |       0 |    0 |  103 |      0 |      0 |    0 |            0 |
|       pipe_0              |        PrevPipeline |        254 |        254 |       0 |    0 |  103 |      0 |      0 |    0 |            0 |
|         init              |           InitStage |          0 |          0 |       0 |    0 |    1 |      0 |      0 |    0 |            0 |
|         read              |           ReadStage |          1 |          1 |       0 |    0 |    6 |      0 |      0 |    0 |            0 |
|         req               |            ReqStage |        203 |        203 |       0 |    0 |   31 |      0 |      0 |    0 |            0 |
|           (req)           |            ReqStage |          0 |          0 |       0 |    0 |    1 |      0 |      0 |    0 |            0 |
|           reg_bus_0       |              Fifo_1 |        203 |        203 |       0 |    0 |   30 |      0 |      0 |    0 |            0 |
|         write             |          WriteStage |         50 |         50 |       0 |    0 |   65 |      0 |      0 |    0 |            0 |
|   pipe                    |            Pipeline |       6485 |       5461 |    1024 |    0 | 2981 |      0 |      0 |    0 |            0 |
|     back                  |                Back |       4200 |       4200 |       0 |    0 | 1836 |      0 |      0 |    0 |            0 |
|       csr                 |                 Csr |          1 |          1 |       0 |    0 |  257 |      0 |      0 |    0 |            0 |
|       ex                  |             ExStage |       1959 |       1959 |       0 |    0 |  379 |      0 |      0 |    0 |            0 |
|         (ex)              |             ExStage |       1195 |       1195 |       0 |    0 |  176 |      0 |      0 |    0 |            0 |
|         alu               |                 Alu |          0 |          0 |       0 |    0 |    0 |      0 |      0 |    0 |            0 |
|         bru               |                 Bru |          1 |          1 |       0 |    0 |    0 |      0 |      0 |    0 |            0 |
|         mamu              |                Mamu |          2 |          2 |       0 |    0 |    2 |      0 |      0 |    0 |            0 |
|         muldiv            |              MulDiv |        761 |        761 |       0 |    0 |  201 |      0 |      0 |    0 |            0 |
|           (muldiv)        |              MulDiv |        525 |        525 |       0 |    0 |  201 |      0 |      0 |    0 |            0 |
|           divss           |         DivShiftSub |        241 |        241 |       0 |    0 |    0 |      0 |      0 |    0 |            0 |
|       gpr                 |                 Gpr |        576 |        576 |       0 |    0 |  992 |      0 |      0 |    0 |            0 |
|       id                  |             IdStage |       1515 |       1515 |       0 |    0 |  149 |      0 |      0 |    0 |            0 |
|       mem                 |            MemStage |        150 |        150 |       0 |    0 |   59 |      0 |      0 |    0 |            0 |
|     front                 |               Front |       2285 |       1261 |    1024 |    0 | 1145 |      0 |      0 |    0 |            0 |
|       if0                 |            If0Stage |          7 |          7 |       0 |    0 |   32 |      0 |      0 |    0 |            0 |
|       if2                 |            If2Stage |        512 |        512 |       0 |    0 |  260 |      0 |      0 |    0 |            0 |
|         (if2)             |            If2Stage |          0 |          0 |       0 |    0 |    1 |      0 |      0 |    0 |            0 |
|         Fifo              |                Fifo |        512 |        512 |       0 |    0 |  259 |      0 |      0 |    0 |            0 |
|       pc                  |             PcStage |       1766 |        742 |    1024 |    0 |  853 |      0 |      0 |    0 |            0 |
|         (pc)              |             PcStage |          6 |          6 |       0 |    0 |   61 |      0 |      0 |    0 |            0 |
|         nlp               |                 Nlp |       1760 |        736 |    1024 |    0 |  792 |      0 |      0 |    0 |            0 |
|           bht             |                 Bht |       1132 |        108 |    1024 |    0 |    8 |      0 |      0 |    0 |            0 |
|           btb             |              HTable |        628 |        628 |       0 |    0 |  784 |      0 |      0 |    0 |            0 |
|             (btb)         |              HTable |        458 |        458 |       0 |    0 |  768 |      0 |      0 |    0 |            0 |
|             plru          |       BitPlruPolicy |        170 |        170 |       0 |    0 |   16 |      0 |      0 |    0 |            0 |
+---------------------------+---------------------+------------+------------+---------+------+------+--------+--------+------+--------------+
* Note: The sum of lower-level cells may be larger than their parent cells total, due to cross-hierarchy LUT combining


